\relax 
\@writefile{toc}{\contentsline {chapter}{\numberline {A}Specyfikacja REST API}{77}}
\@writefile{lof}{\addvspace {10\p@ }}
\@writefile{lot}{\addvspace {10\p@ }}
\newlabel{cha:dodatekA}{{A}{77}}
\@writefile{toc}{\contentsline {section}{\numberline {A.1}Protoko\IeC {\l }y wewn\IeC {\k e}trzne}{77}}
\@writefile{toc}{\contentsline {subsection}{\numberline {A.1.1}Zlecenie do\IeC {\l }\IeC {\k a}czenia urz\IeC {\k a}dzenia do chmury obliczeniowej}{77}}
\@writefile{toc}{\contentsline {subsection}{\numberline {A.1.2}Propagowanie informacji o~do\IeC {\l }\IeC {\k a}czeniu nowego urz\IeC {\k a}dzenia do chmury mobilnej}{78}}
\@writefile{toc}{\contentsline {subsection}{\numberline {A.1.3}Propagowanie informacji o~ilo\IeC {\'s}ci urz\IeC {\k a}dze\IeC {\'n} w~ka\IeC {\.z}dym poddrzewie}{78}}
\@writefile{toc}{\contentsline {subsection}{\numberline {A.1.4}Zlecenie wykonania zadania obliczeniowego na chmurze mobilnej}{78}}
\@writefile{toc}{\contentsline {subsection}{\numberline {A.1.5}Propagowanie informacji o~nowym zadaniu obliczeniowym}{79}}
\@writefile{toc}{\contentsline {subsection}{\numberline {A.1.6}Propagowanie informacji o~urz\IeC {\k a}dzeniach, kt\IeC {\'o}re przyj\IeC {\k e}\IeC {\l }y zadanie obliczeniowe}{79}}
\@writefile{toc}{\contentsline {subsection}{\numberline {A.1.7}Propagowanie informacji o~topologii sieciowej zadania obliczeniowego}{80}}
\@writefile{toc}{\contentsline {section}{\numberline {A.2}Protoko\IeC {\l }y zewn\IeC {\k e}trzne}{80}}
\@writefile{toc}{\contentsline {subsection}{\numberline {A.2.1}Pobranie informacji o wybranym urz\IeC {\k a}dzeniu mobilnym}{81}}
\@writefile{toc}{\contentsline {subsection}{\numberline {A.2.2}Pobranie informacji o korzeniu wybranego urz\IeC {\k a}dzenia mobilnego}{81}}
\@writefile{toc}{\contentsline {subsection}{\numberline {A.2.3}Pobranie informacji o dzieciach wybranego urz\IeC {\k a}dzenia mobilnego}{81}}
\@writefile{toc}{\contentsline {subsection}{\numberline {A.2.4}Deaktywacja chmury obliczeniowej}{82}}
\@setckpt{dodatekA}{
\setcounter{page}{83}
\setcounter{equation}{0}
\setcounter{enumi}{6}
\setcounter{enumii}{0}
\setcounter{enumiii}{0}
\setcounter{enumiv}{0}
\setcounter{footnote}{0}
\setcounter{mpfootnote}{0}
\setcounter{part}{0}
\setcounter{chapter}{1}
\setcounter{section}{2}
\setcounter{subsection}{4}
\setcounter{subsubsection}{0}
\setcounter{paragraph}{0}
\setcounter{subparagraph}{0}
\setcounter{figure}{0}
\setcounter{table}{0}
\setcounter{lofdepth}{1}
\setcounter{lotdepth}{1}
\setcounter{lstnumber}{4}
\setcounter{parentequation}{0}
\setcounter{lstlisting}{0}
}
