\relax 
\citation{Js_event}
\@writefile{toc}{\contentsline {chapter}{\numberline {B}Narz\IeC {\k e}dzia programistyczne}{83}}
\@writefile{lof}{\addvspace {10\p@ }}
\@writefile{lot}{\addvspace {10\p@ }}
\newlabel{cha:dodatekB}{{B}{83}}
\@setckpt{dodatekB}{
\setcounter{page}{85}
\setcounter{equation}{0}
\setcounter{enumi}{6}
\setcounter{enumii}{0}
\setcounter{enumiii}{0}
\setcounter{enumiv}{0}
\setcounter{footnote}{0}
\setcounter{mpfootnote}{0}
\setcounter{part}{0}
\setcounter{chapter}{2}
\setcounter{section}{0}
\setcounter{subsection}{4}
\setcounter{subsubsection}{0}
\setcounter{paragraph}{0}
\setcounter{subparagraph}{0}
\setcounter{figure}{0}
\setcounter{table}{0}
\setcounter{lofdepth}{1}
\setcounter{lotdepth}{1}
\setcounter{lstnumber}{4}
\setcounter{parentequation}{0}
\setcounter{lstlisting}{0}
}
