\relax 
\catcode`"\active
\select@language{polish}
\@writefile{toc}{\select@language{polish}}
\@writefile{lof}{\select@language{polish}}
\@writefile{lot}{\select@language{polish}}
\select@language{polish}
\@writefile{toc}{\select@language{polish}}
\@writefile{lof}{\select@language{polish}}
\@writefile{lot}{\select@language{polish}}
\@input{rozdzial1.aux}
\@input{rozdzial2.aux}
\@input{rozdzial3.aux}
\@input{rozdzial4.aux}
\@input{rozdzial5.aux}
\@input{rozdzial6.aux}
\@input{rozdzial7.aux}
\@input{rozdzial8.aux}
\@input{rozdzial9.aux}
\@input{dodatekA.aux}
\@input{dodatekB.aux}
\bibstyle{alpha}
\bibdata{bibliografia}
\bibcite{Ian_Foster}{1}
\bibcite{Gordon_Moore_1965_Article}{2}
\bibcite{Parallel_Computing_Research}{3}
\bibcite{Introduction_to_PC}{4}
\bibcite{Amdahl}{5}
\bibcite{Gustafson}{6}
\bibcite{Granularity}{7}
\bibcite{Virtual_Topologies}{8}
\bibcite{Cormen}{9}
\bibcite{MPP}{10}
\bibcite{GPGPU}{11}
\bibcite{Grid}{12}
\bibcite{FLOPS}{13}
\bibcite{Bitcoin}{14}
\bibcite{BoincStats}{15}
\bibcite{FoldingAtHome}{16}
\bibcite{MilkyWayAtHome}{17}
\bibcite{TOP500}{18}
\bibcite{MPI}{19}
\bibcite{OpenMP}{20}
\bibcite{Mobile_trends}{21}
\bibcite{Smartphone_comparison}{22}
\bibcite{Smartphone}{23}
\bibcite{RFC4193}{24}
\bibcite{Android_IPv6}{25}
\bibcite{IPv6_devices}{26}
\bibcite{CrossPlatform}{27}
\bibcite{NanoHttpd}{28}
\bibcite{RestTemplate}{29}
\bibcite{CocoaHTTPServer}{30}
\bibcite{NSURLConnection}{31}
\bibcite{WindowsPhoneHttpServer}{32}
\bibcite{WindowsPhoneWebRequests}{33}
\bibcite{WebView}{34}
\bibcite{JavaScriptCore}{35}
\bibcite{WindowsPhoneJavaScirpt}{36}
\bibcite{AndroidDeviceBridge}{37}
\bibcite{PacketInstaller}{38}
\bibcite{GeneticAlgorithms}{39}
\bibcite{CrossoverSCX}{40}
\bibcite{PGA}{41}
\bibcite{Js_event}{42}
