\relax 
\citation{Ian_Foster}
\citation{Gordon_Moore_1965_Article}
\citation{Parallel_Computing_Research}
\@writefile{toc}{\contentsline {chapter}{\numberline {2}Problematyka oblicze\IeC {\'n} rozproszonych}{13}}
\@writefile{lof}{\addvspace {10\p@ }}
\@writefile{lot}{\addvspace {10\p@ }}
\newlabel{cha:rozdzial2}{{2}{13}}
\@writefile{toc}{\contentsline {section}{\numberline {2.1}Uzasadnienie zr\IeC {\'o}wnoleglania oblicze\IeC {\'n}}{13}}
\citation{Ian_Foster}
\citation{Ian_Foster}
\citation{Introduction_to_PC}
\@writefile{toc}{\contentsline {section}{\numberline {2.2}Algorytmy r\IeC {\'o}wnoleg\IeC {\l }e}{14}}
\citation{Amdahl}
\citation{Amdahl}
\citation{Amdahl}
\citation{Gustafson}
\@writefile{toc}{\contentsline {subsection}{\numberline {2.2.1}Pomiary wydajno\IeC {\'s}ciowe}{15}}
\@writefile{lof}{\contentsline {figure}{\numberline {2.1}{\ignorespaces Zobrazowanie prawa Amdahl'a dla r\IeC {\'o}\IeC {\.z}nych warto\IeC {\'s}ci u\IeC {\l }amka programu podlegaj\IeC {\k a}cego zr\IeC {\'o}wnolegleniu. Wykres utworzony na podstawie:~\cite  {Amdahl}.}}{15}}
\newlabel{fig:amdhals_law}{{2.1}{15}}
\citation{Gustafson}
\citation{Gustafson}
\citation{Granularity}
\citation{Virtual_Topologies}
\@writefile{lof}{\contentsline {figure}{\numberline {2.2}{\ignorespaces Zobrazowanie prawa Gustafsona'a dla r\IeC {\'o}\IeC {\.z}nych warto\IeC {\'s}ci u\IeC {\l }amka programu nie podlegaj\IeC {\k a}cego zr\IeC {\'o}wnolegleniu. Wykres utworzony na podstawie:~\cite  {Gustafson}.}}{16}}
\newlabel{fig:gustafsons_law}{{2.2}{16}}
\citation{Cormen}
\@writefile{toc}{\contentsline {subsection}{\numberline {2.2.2}Wirtualne topologie}{17}}
\@writefile{lof}{\contentsline {figure}{\numberline {2.3}{\ignorespaces Wirtualna topologia oparta na drzewie binarnym, zbudowana z~7~procesor\IeC {\'o}w.}}{17}}
\newlabel{fig:binary}{{2.3}{17}}
\@writefile{toc}{\contentsline {section}{\numberline {2.3}Podsumowanie}{18}}
\@setckpt{rozdzial2}{
\setcounter{page}{19}
\setcounter{equation}{0}
\setcounter{enumi}{2}
\setcounter{enumii}{0}
\setcounter{enumiii}{0}
\setcounter{enumiv}{0}
\setcounter{footnote}{0}
\setcounter{mpfootnote}{0}
\setcounter{part}{0}
\setcounter{chapter}{2}
\setcounter{section}{3}
\setcounter{subsection}{0}
\setcounter{subsubsection}{0}
\setcounter{paragraph}{0}
\setcounter{subparagraph}{0}
\setcounter{figure}{3}
\setcounter{table}{0}
\setcounter{lofdepth}{1}
\setcounter{lotdepth}{1}
\setcounter{lstnumber}{1}
\setcounter{parentequation}{0}
\setcounter{lstlisting}{0}
}
