\relax 
\citation{MPP}
\citation{GPGPU}
\citation{Grid}
\@writefile{toc}{\contentsline {chapter}{\numberline {3}Wybrane technologie w~obliczeniach r\IeC {\'o}wnoleg\IeC {\l }ych}{19}}
\@writefile{lof}{\addvspace {10\p@ }}
\@writefile{lot}{\addvspace {10\p@ }}
\newlabel{cha:rozdzial3}{{3}{19}}
\@writefile{toc}{\contentsline {section}{\numberline {3.1}Komputery r\IeC {\'o}wnoleg\IeC {\l }e}{19}}
\citation{FLOPS}
\citation{Bitcoin}
\citation{BoincStats}
\citation{FoldingAtHome}
\citation{MilkyWayAtHome}
\citation{TOP500}
\citation{MPI}
\citation{MPI}
\citation{OpenMP}
\@writefile{toc}{\contentsline {section}{\numberline {3.2}Protoko\IeC {\l }y komunikacyjne}{21}}
\@writefile{toc}{\contentsline {section}{\numberline {3.3}Podsumowanie}{21}}
\@setckpt{rozdzial3}{
\setcounter{page}{23}
\setcounter{equation}{0}
\setcounter{enumi}{5}
\setcounter{enumii}{0}
\setcounter{enumiii}{0}
\setcounter{enumiv}{0}
\setcounter{footnote}{1}
\setcounter{mpfootnote}{0}
\setcounter{part}{0}
\setcounter{chapter}{3}
\setcounter{section}{3}
\setcounter{subsection}{0}
\setcounter{subsubsection}{0}
\setcounter{paragraph}{0}
\setcounter{subparagraph}{0}
\setcounter{figure}{0}
\setcounter{table}{0}
\setcounter{lofdepth}{1}
\setcounter{lotdepth}{1}
\setcounter{lstnumber}{1}
\setcounter{parentequation}{0}
\setcounter{lstlisting}{0}
}
