\relax 
\@writefile{toc}{\contentsline {chapter}{\numberline {9}Podsumowanie}{73}}
\@writefile{lof}{\addvspace {10\p@ }}
\@writefile{lot}{\addvspace {10\p@ }}
\newlabel{cha:rozdzial9}{{9}{73}}
\@writefile{toc}{\contentsline {section}{\numberline {9.1}Rezultaty prac}{73}}
\@writefile{toc}{\contentsline {section}{\numberline {9.2}Mo\IeC {\.z}liwo\IeC {\'s}ci rozwoju}{74}}
\@writefile{toc}{\contentsline {section}{\numberline {9.3}Wnioski}{74}}
\@setckpt{rozdzial9}{
\setcounter{page}{76}
\setcounter{equation}{0}
\setcounter{enumi}{6}
\setcounter{enumii}{0}
\setcounter{enumiii}{0}
\setcounter{enumiv}{0}
\setcounter{footnote}{0}
\setcounter{mpfootnote}{0}
\setcounter{part}{0}
\setcounter{chapter}{9}
\setcounter{section}{3}
\setcounter{subsection}{0}
\setcounter{subsubsection}{0}
\setcounter{paragraph}{0}
\setcounter{subparagraph}{0}
\setcounter{figure}{0}
\setcounter{table}{0}
\setcounter{lofdepth}{1}
\setcounter{lotdepth}{1}
\setcounter{lstnumber}{2}
\setcounter{parentequation}{0}
\setcounter{lstlisting}{0}
}
