\relax 
\@writefile{toc}{\contentsline {chapter}{\numberline {8}Weryfikacja eksperymentalna}{61}}
\@writefile{lof}{\addvspace {10\p@ }}
\@writefile{lot}{\addvspace {10\p@ }}
\newlabel{cha:rozdzial8}{{8}{61}}
\@writefile{toc}{\contentsline {section}{\numberline {8.1}Weryfikacja poprawno\IeC {\'s}ci za\IeC {\l }o\IeC {\.z}e\IeC {\'n}}{61}}
\@writefile{toc}{\contentsline {section}{\numberline {8.2}Testy wydajno\IeC {\'s}ci oblicze\IeC {\'n}}{62}}
\@writefile{toc}{\contentsline {subsection}{\numberline {8.2.1}Metodologia prowadzenia test\IeC {\'o}w}{62}}
\@writefile{toc}{\contentsline {subsection}{\numberline {8.2.2}Rodzaje zada\IeC {\'n} testowych}{63}}
\@writefile{lof}{\contentsline {figure}{\numberline {8.1}{\ignorespaces Zbi\IeC {\'o}r Mandelbrota wygenerowany przez zadanie Mandelbrot.js, narysowany przez dedykowany serwer danych, dostarczony razem z \textit  {Mobile Cloud Platform}.}}{63}}
\newlabel{fig:mandelbrot}{{8.1}{63}}
\citation{GeneticAlgorithms}
\citation{CrossoverSCX}
\citation{Ian_Foster}
\citation{PGA}
\@writefile{toc}{\contentsline {subsection}{\numberline {8.2.3}\IeC {\'S}rodowiska testowe}{65}}
\@writefile{lof}{\contentsline {figure}{\numberline {8.2}{\ignorespaces Lista urz\IeC {\k a}dze\IeC {\'n} mobilnych wchodz\IeC {\k a}cych w~sk\IeC {\l }ad pierwszego \IeC {\'s}rodowiska uruchomieniowego, wygenerowana przez \textit  {Mobile Cloud Control Center}.}}{65}}
\newlabel{fig:devices_list}{{8.2}{65}}
\@writefile{toc}{\contentsline {subsection}{\numberline {8.2.4}Wyniki test\IeC {\'o}w wydajno\IeC {\'s}ciowych}{66}}
\@writefile{lof}{\contentsline {figure}{\numberline {8.3}{\ignorespaces Wykres przyspieszenia wykonania zadania obliczeniowego Mandelbrot.js, dla rozmiaru problemu wynosz\IeC {\k a}cego 810~000 punkt\IeC {\'o}w, w~zale\IeC {\.z}no\IeC {\'s}ci od ilo\IeC {\'s}ci urz\IeC {\k a}dze\IeC {\'n} mobilnych wykonuj\IeC {\k a}cych zadanie obliczeniowe.}}{66}}
\newlabel{fig:mandelbrot_actual_speedup}{{8.3}{66}}
\@writefile{lof}{\contentsline {figure}{\numberline {8.4}{\ignorespaces Wykres efektywno\IeC {\'s}ci wykonania zadania obliczeniowego Mandelbrot.js, dla rozmiaru problemu wynosz\IeC {\k a}cego 810~000 punkt\IeC {\'o}w, w~zale\IeC {\.z}no\IeC {\'s}ci od zaw\IeC {\k e}\IeC {\.z}onej ilo\IeC {\'s}ci (od~5 do~12) urz\IeC {\k a}dze\IeC {\'n} mobilnych wykonuj\IeC {\k a}cych zadanie obliczeniowe.}}{67}}
\newlabel{fig:mandelbrot_actual_effectiveness}{{8.4}{67}}
\@writefile{lof}{\contentsline {figure}{\numberline {8.5}{\ignorespaces Wykres przyspieszenia wykonania zadania obliczeniowego pi.js, dla rozmiaru problemu wynosz\IeC {\k a}cego kolejno 300~000, 3~000~000 i 30~000~000 punkt\IeC {\'o}w, w~zale\IeC {\.z}no\IeC {\'s}ci od ilo\IeC {\'s}ci urz\IeC {\k a}dze\IeC {\'n} mobilnych wykonuj\IeC {\k a}cych zadanie obliczeniowe.}}{68}}
\newlabel{fig:pi_actual_speedup}{{8.5}{68}}
\@writefile{lof}{\contentsline {figure}{\numberline {8.6}{\ignorespaces Wykres efektywno\IeC {\'s}ci zadania obliczeniowego pi.js, dla rozmiaru problemu wynosz\IeC {\k a}cego kolejno 300~000, 3~000~000 i 30~000~000 punkt\IeC {\'o}w, w~zale\IeC {\.z}no\IeC {\'s}ci od ilo\IeC {\'s}ci urz\IeC {\k a}dze\IeC {\'n} mobilnych wykonuj\IeC {\k a}cych zadanie obliczeniowe.}}{68}}
\newlabel{fig:pi_actual_effectiveness}{{8.6}{68}}
\@writefile{lof}{\contentsline {figure}{\numberline {8.7}{\ignorespaces Wykres efektywno\IeC {\'s}ci wykonania zadania obliczeniowego tsp.js, wykonanego na \textit  {rzeczywistym} \IeC {\'s}rodowisku uruchomieniowym, dla problemu znalezienia \IeC {\'s}cie\IeC {\.z}ki o~d\IeC {\l }ugo\IeC {\'s}ci nie wi\IeC {\k e}kszej ni\IeC {\.z} 605, w~zale\IeC {\.z}no\IeC {\'s}ci od ilo\IeC {\'s}ci urz\IeC {\k a}dze\IeC {\'n} mobilnych wykonuj\IeC {\k a}cych zadanie obliczeniowe.}}{69}}
\newlabel{fig:tsp_actual_effectiveness}{{8.7}{69}}
\@writefile{lof}{\contentsline {figure}{\numberline {8.8}{\ignorespaces Wykres przyspieszenia zadania obliczeniowego tsp.js, wykonanego na \textit  {wirtualnym} \IeC {\'s}rodowisku uruchomieniowym, dla problem\IeC {\'o}w znalezienia \IeC {\'s}cie\IeC {\.z}ki o~d\IeC {\l }ugo\IeC {\'s}ci nie wi\IeC {\k e}kszej ni\IeC {\.z} 595 i 590, w~zale\IeC {\.z}no\IeC {\'s}ci od ilo\IeC {\'s}ci urz\IeC {\k a}dze\IeC {\'n} mobilnych wykonuj\IeC {\k a}cych zadanie obliczeniowe.}}{70}}
\newlabel{fig:tsp_virtual_speedup}{{8.8}{70}}
\@writefile{lof}{\contentsline {figure}{\numberline {8.9}{\ignorespaces Wykres efektywno\IeC {\'s}ci zadania obliczeniowego tsp.js, wykonanego na \textit  {wirtualnym} \IeC {\'s}rodowisku uruchomieniowym, dla problem\IeC {\'o}w znalezienia \IeC {\'s}cie\IeC {\.z}ki o~d\IeC {\l }ugo\IeC {\'s}ci nie wi\IeC {\k e}kszej ni\IeC {\.z} 595 i~590, w~zale\IeC {\.z}no\IeC {\'s}ci od ilo\IeC {\'s}ci urz\IeC {\k a}dze\IeC {\'n} mobilnych wykonuj\IeC {\k a}cych zadanie obliczeniowe.}}{70}}
\newlabel{fig:tsp_virtual_effectiveness}{{8.9}{70}}
\@writefile{toc}{\contentsline {subsection}{\numberline {8.2.5}Pomiary mocy obliczeniowej}{71}}
\@writefile{lof}{\contentsline {figure}{\numberline {8.10}{\ignorespaces Wykres czasu wyznaczania liczby Pi metod\IeC {\k a} Monte Carlo na \textit  {rzeczywistym} \IeC {\'s}rodowisku uruchomieniowym oraz na jednym w\IeC {\k a}tku procesora Intel~i7-3370K~@3,50GHz.}}{71}}
\newlabel{fig:performance_comparison}{{8.10}{71}}
\@writefile{toc}{\contentsline {section}{\numberline {8.3}Podsumowanie}{72}}
\@setckpt{rozdzial8}{
\setcounter{page}{73}
\setcounter{equation}{0}
\setcounter{enumi}{5}
\setcounter{enumii}{0}
\setcounter{enumiii}{0}
\setcounter{enumiv}{0}
\setcounter{footnote}{9}
\setcounter{mpfootnote}{0}
\setcounter{part}{0}
\setcounter{chapter}{8}
\setcounter{section}{3}
\setcounter{subsection}{0}
\setcounter{subsubsection}{0}
\setcounter{paragraph}{0}
\setcounter{subparagraph}{0}
\setcounter{figure}{10}
\setcounter{table}{0}
\setcounter{lofdepth}{1}
\setcounter{lotdepth}{1}
\setcounter{lstnumber}{2}
\setcounter{parentequation}{0}
\setcounter{lstlisting}{0}
}
