\relax 
\@writefile{toc}{\contentsline {chapter}{\numberline {5}Konepcja projektu Mobile Cloud Platform}{27}}
\@writefile{lof}{\addvspace {10\p@ }}
\@writefile{lot}{\addvspace {10\p@ }}
\newlabel{cha:rozdzial5}{{5}{27}}
\@writefile{toc}{\contentsline {section}{\numberline {5.1}Wymagania}{27}}
\@writefile{toc}{\contentsline {subsection}{\numberline {5.1.1}Wymagania funkcjonalne}{28}}
\citation{Grid}
\@writefile{toc}{\contentsline {subsection}{\numberline {5.1.2}Wymagania koncepcyjne}{29}}
\@writefile{toc}{\contentsline {section}{\numberline {5.2}Za\IeC {\l }o\IeC {\.z}enia}{29}}
\@writefile{toc}{\contentsline {subsection}{\numberline {5.2.1}Samozarz\IeC {\k a}dzalno\IeC {\'s}\IeC {\'c} chmury obliczeniowej}{29}}
\@writefile{lof}{\contentsline {figure}{\numberline {5.1}{\ignorespaces Hierarchiczna struktura samozarz\IeC {\k a}dzalnej mobilnej chmury obliczeniowej.}}{30}}
\newlabel{fig:cloud_tree}{{5.1}{30}}
\citation{RFC4193}
\citation{Android_IPv6}
\citation{IPv6_devices}
\citation{CrossPlatform}
\citation{NanoHttpd}
\citation{RestTemplate}
\citation{CocoaHTTPServer}
\citation{NSURLConnection}
\citation{WindowsPhoneHttpServer}
\citation{WindowsPhoneWebRequests}
\@writefile{toc}{\contentsline {subsection}{\numberline {5.2.2}Wieloplatformowo\IeC {\'s}\IeC {\'c} produktu}{32}}
\citation{WebView}
\citation{JavaScriptCore}
\citation{WindowsPhoneJavaScirpt}
\@writefile{toc}{\contentsline {section}{\numberline {5.3}Komponenty Mobile Cloud Platform}{33}}
\@writefile{toc}{\contentsline {subsection}{\numberline {5.3.1}Android Client}{33}}
\@writefile{toc}{\contentsline {subsection}{\numberline {5.3.2}Mobile Cloud Control Center}{33}}
\@setckpt{rozdzial5}{
\setcounter{page}{35}
\setcounter{equation}{0}
\setcounter{enumi}{2}
\setcounter{enumii}{0}
\setcounter{enumiii}{0}
\setcounter{enumiv}{0}
\setcounter{footnote}{10}
\setcounter{mpfootnote}{0}
\setcounter{part}{0}
\setcounter{chapter}{5}
\setcounter{section}{3}
\setcounter{subsection}{2}
\setcounter{subsubsection}{0}
\setcounter{paragraph}{0}
\setcounter{subparagraph}{0}
\setcounter{figure}{1}
\setcounter{table}{0}
\setcounter{lofdepth}{1}
\setcounter{lotdepth}{1}
\setcounter{lstnumber}{1}
\setcounter{parentequation}{0}
\setcounter{lstlisting}{0}
}
