\relax 
\@writefile{toc}{\contentsline {chapter}{\numberline {7}Wdro\IeC {\.z}enie i wykorzystanie}{49}}
\@writefile{lof}{\addvspace {10\p@ }}
\@writefile{lot}{\addvspace {10\p@ }}
\newlabel{cha:rozdzial7}{{7}{49}}
\@writefile{toc}{\contentsline {section}{\numberline {7.1}Przygotowanie \IeC {\'s}rodowiska}{50}}
\@writefile{toc}{\contentsline {subsection}{\numberline {7.1.1}Uruchomienie przyk\IeC {\l }adowego serwera danych}{50}}
\@writefile{toc}{\contentsline {subsection}{\numberline {7.1.2}Uruchomienie Mobile Cloud Control Center}{50}}
\@writefile{lof}{\contentsline {figure}{\numberline {7.1}{\ignorespaces Pierwsze uruchomienie \textit  {Mobile Cloud Control Center} na komputerze z~ekranem o~rozdzielczo\IeC {\'s}ci 1280x800.}}{51}}
\newlabel{fig:mbcc1280x800}{{7.1}{51}}
\@writefile{toc}{\contentsline {subsection}{\numberline {7.1.3}Generowanie tre\IeC {\'s}ci przyk\IeC {\l }adowego zadania obliczeniowego}{51}}
\@writefile{lof}{\contentsline {figure}{\numberline {7.2}{\ignorespaces Pierwsze uruchomienie \textit  {Mobile Cloud Control Center} na urz\IeC {\k a}dzeniu mobilnym o~rozdzielczo\IeC {\'s}ci 480x800.}}{52}}
\newlabel{fig:mbcc480x800}{{7.2}{52}}
\@writefile{toc}{\contentsline {section}{\numberline {7.2}Wykorzystanie komponentu Android Client}{52}}
\citation{AndroidDeviceBridge}
\citation{PacketInstaller}
\@writefile{toc}{\contentsline {subsection}{\numberline {7.2.1}Instalacja i uruchomienie Android Client}{53}}
\@writefile{toc}{\contentsline {subsection}{\numberline {7.2.2}Do\IeC {\l }\IeC {\k a}czanie urz\IeC {\k a}dzenia do mobilnej chmury obliczeniowej}{53}}
\@writefile{toc}{\contentsline {subsection}{\numberline {7.2.3}Uruchamianie zadania obliczeniowego w chmurze mobilnej}{53}}
\@writefile{lof}{\contentsline {figure}{\numberline {7.3}{\ignorespaces Widok \textit  {Connect to cloud} podczas do\IeC {\l }\IeC {\k a}czania urz\IeC {\k a}dzenia do chmury mobilnej dost\IeC {\k e}pnej pod adresem 10.0.0.105.}}{54}}
\newlabel{fig:connect_to_cloud_GUI}{{7.3}{54}}
\@writefile{toc}{\contentsline {section}{\numberline {7.3}Wykorzystanie komponentu Mobile Cloud Control Center}{54}}
\@writefile{toc}{\contentsline {subsection}{\numberline {7.3.1}Dodawanie urz\IeC {\k a}dze\IeC {\'n} mobilnych}{54}}
\@writefile{lof}{\contentsline {figure}{\numberline {7.4}{\ignorespaces Widok \textit  {Task handling} podczas uruchamiania zadania obliczeniowego tsp.js w~chmurze mobilnej.}}{55}}
\newlabel{fig:start_tspjs_GUI}{{7.4}{55}}
\@writefile{lof}{\contentsline {figure}{\numberline {7.5}{\ignorespaces Uruchomienie narz\IeC {\k e}dzia wykrywaj\IeC {\k a}cego urz\IeC {\k a}dzenia mobilne w~sieci lokalnej.}}{55}}
\newlabel{fig:discover_devices_mbcc}{{7.5}{55}}
\@writefile{lof}{\contentsline {figure}{\numberline {7.6}{\ignorespaces Uzupe\IeC {\l }nienie okna \textit  {Discover devices} informacjami sieci lokalnej o~adresie 10.0.0.0 z~mask\IeC {\k a} o~d\IeC {\l }ugo\IeC {\'s}ci~24.}}{56}}
\newlabel{fig:discover_devices_modal_mbcc}{{7.6}{56}}
\@writefile{toc}{\contentsline {subsection}{\numberline {7.3.2}Budowanie chmury mobilnej ze znanych urz\IeC {\k a}dze\IeC {\'n}}{56}}
\@writefile{lof}{\contentsline {figure}{\numberline {7.7}{\ignorespaces Do\IeC {\l }\IeC {\k a}czanie znanych urz\IeC {\k a}dze\IeC {\'n} mobilnych do aktywnej chmury obliczeniowej o~naziwe \textit  {Example task execution}.}}{57}}
\newlabel{fig:connect_to_active_cloud}{{7.7}{57}}
\@writefile{toc}{\contentsline {subsection}{\numberline {7.3.3}Wysy\IeC {\l }anie tre\IeC {\'s}ci zadania obliczeniowego do serwera}{57}}
\@writefile{lof}{\contentsline {figure}{\numberline {7.8}{\ignorespaces Uruchomienie narz\IeC {\k e}dzia rozpoczynaj\IeC {\k a}cego wykonanie zadania obliczeniowego w~chmurze mobilnej.}}{57}}
\newlabel{fig:run_task}{{7.8}{57}}
\@writefile{toc}{\contentsline {subsection}{\numberline {7.3.4}Uruchomienie zadania obliczeniowego na chmurze}{57}}
\@writefile{lof}{\contentsline {figure}{\numberline {7.9}{\ignorespaces Rozpocz\IeC {\k e}cie wykonania zadania obliczeniowego na wybranej chmurze mobilnej.}}{58}}
\newlabel{fig:run_task_modal}{{7.9}{58}}
\@writefile{toc}{\contentsline {subsection}{\numberline {7.3.5}Pobranie wyniku zadania obliczeniowego}{58}}
\@writefile{toc}{\contentsline {subsection}{\numberline {7.3.6}Deaktywacja chmury}{58}}
\@writefile{lof}{\contentsline {figure}{\numberline {7.10}{\ignorespaces Okno z~list\IeC {\k a} wszystkich zada\IeC {\'n} obliczeniowych wykonanych za po\IeC {\'s}rednictwem \textit  {Mobile Cloud Control Center}.}}{59}}
\newlabel{fig:executed_tasks_modal}{{7.10}{59}}
\@setckpt{rozdzial7}{
\setcounter{page}{60}
\setcounter{equation}{0}
\setcounter{enumi}{3}
\setcounter{enumii}{0}
\setcounter{enumiii}{0}
\setcounter{enumiv}{0}
\setcounter{footnote}{16}
\setcounter{mpfootnote}{0}
\setcounter{part}{0}
\setcounter{chapter}{7}
\setcounter{section}{3}
\setcounter{subsection}{6}
\setcounter{subsubsection}{0}
\setcounter{paragraph}{0}
\setcounter{subparagraph}{0}
\setcounter{figure}{10}
\setcounter{table}{0}
\setcounter{lofdepth}{1}
\setcounter{lotdepth}{1}
\setcounter{lstnumber}{2}
\setcounter{parentequation}{0}
\setcounter{lstlisting}{0}
}
