\relax 
\@writefile{toc}{\contentsline {chapter}{\numberline {6}Wybrane aspekty implementacyjne}{35}}
\@writefile{lof}{\addvspace {10\p@ }}
\@writefile{lot}{\addvspace {10\p@ }}
\newlabel{cha:rozdzial6}{{6}{35}}
\@writefile{toc}{\contentsline {section}{\numberline {6.1}Implementacja komponentu Android Client}{35}}
\@writefile{toc}{\contentsline {subsection}{\numberline {6.1.1}Wykorzystane technologie}{35}}
\@writefile{toc}{\contentsline {subsection}{\numberline {6.1.2}Architektura aplikacji}{36}}
\@writefile{toc}{\contentsline {subsection}{\numberline {6.1.3}Komunikacja pomi\IeC {\k e}dzy urz\IeC {\k a}dzeniami}{36}}
\@writefile{lof}{\contentsline {figure}{\numberline {6.1}{\ignorespaces Architektura aplikacji mobilnej, przeznaczonej na system operacyjny Android w~wersji 2.3.3~Gingerbread lub wy\IeC {\.z}szej, przedstawiona w postaci diagramu klas.}}{37}}
\newlabel{fig:mobile_client_architecture}{{6.1}{37}}
\@writefile{toc}{\contentsline {subsection}{\numberline {6.1.4}Dost\IeC {\k e}p do sensor\IeC {\'o}w}{38}}
\@writefile{toc}{\contentsline {subsection}{\numberline {6.1.5}Kontrola jako\IeC {\'s}ci}{38}}
\@writefile{toc}{\contentsline {section}{\numberline {6.2}Implementacja komponentu Mobile Cloud Control Center}{39}}
\@writefile{toc}{\contentsline {subsection}{\numberline {6.2.1}Wykorzystane technologie}{40}}
\@writefile{toc}{\contentsline {subsection}{\numberline {6.2.2}Architektura rozwi\IeC {\k a}zania}{41}}
\@writefile{lof}{\contentsline {figure}{\numberline {6.2}{\ignorespaces Architektura serwera do komponentu \textit  {Mobile Cloud Control Center} przedstawiona w~postaci diagramu klas.}}{41}}
\newlabel{fig:mobile_cloud_control_center_server_architecture}{{6.2}{41}}
\@writefile{toc}{\contentsline {section}{\numberline {6.3}Specyfikacja protoko\IeC {\l }\IeC {\'o}w komunikacyjnych}{42}}
\@writefile{toc}{\contentsline {subsection}{\numberline {6.3.1}Protoko\IeC {\l }y wewn\IeC {\k e}trzne}{42}}
\@writefile{lof}{\contentsline {figure}{\numberline {6.3}{\ignorespaces Architektura klienta przegl\IeC {\k a}darkowego do komponentu \textit  {Mobile Cloud Control Center} przedstawiona w~postaci diagramu klas.}}{43}}
\newlabel{fig:mobile_cloud_control_center_browser_architecture}{{6.3}{43}}
\@writefile{lof}{\contentsline {figure}{\numberline {6.4}{\ignorespaces Urz\IeC {\k a}dzenie zewn\IeC {\k e}trzne wysy\IeC {\l }a komunikat o~nazwie \textit  {\unhbox \voidb@x \hbox {ConnectDeviceReuqest}} do dowolnego urz\IeC {\k a}dzenia wchodz\IeC {\k a}cego w~sk\IeC {\l }ad chmury obliczeniowej.}}{44}}
\newlabel{fig:connectdevicerequest}{{6.4}{44}}
\@writefile{lof}{\contentsline {figure}{\numberline {6.5}{\ignorespaces Komunikat o nazwie \textit  {\unhbox \voidb@x \hbox {ConnectDeviceReuqest}} jest propagowany do urz\IeC {\k a}dzenia, kt\IeC {\'o}re ma do\IeC {\l }\IeC {\k a}czy\IeC {\'c} nowe urz\IeC {\k a}dzenie mobilne do chmury obliczeniowej.}}{45}}
\newlabel{fig:savedeviceconnectionrequest}{{6.5}{45}}
\@writefile{lof}{\contentsline {figure}{\numberline {6.6}{\ignorespaces Ilo\IeC {\'s}\IeC {\'c} urz\IeC {\k a}dze\IeC {\'n} w danym poddrzewie jest propagowana do korzenia chmury obliczeniowej za pomoc\IeC {\k a} komunikatu o~nazwie \textit  {\unhbox \voidb@x \hbox {UpdateChildrenCountRequest}}.}}{45}}
\newlabel{fig:updatechildrencountrequest}{{6.6}{45}}
\@writefile{lof}{\contentsline {figure}{\numberline {6.7}{\ignorespaces Wst\IeC {\k e}pna komunikacja inicjalizuj\IeC {\k a}ca uruchomienie zadania obliczeniowego na chmurze mobilnej.}}{46}}
\newlabel{fig:starttaskexecutionrequest}{{6.7}{46}}
\@writefile{lof}{\contentsline {figure}{\numberline {6.8}{\ignorespaces Propagowanie informacji o~nowym zadaniu obliczeniowym po ca\IeC {\l }ej chmurze mobilnej w~postaci komunikatu \textit  {\unhbox \voidb@x \hbox {ScheduleTaskExecutionRequest}}.}}{47}}
\newlabel{fig:scheduletaskexecutionrequest}{{6.8}{47}}
\@writefile{lof}{\contentsline {figure}{\numberline {6.9}{\ignorespaces Propagowanie informacji o urz\IeC {\k a}dzeniach, kt\IeC {\'o}re wezm\IeC {\k a} udzia\IeC {\l } w nowym zadaniu obliczeniowym, po ca\IeC {\l }ej chmurze mobilnej, w~postaci komunikatu \textit  {\unhbox \voidb@x \hbox {RemoteTaskReadyRequest}}.}}{47}}
\newlabel{fig:remotetaskreadyrequest}{{6.9}{47}}
\@writefile{lof}{\contentsline {figure}{\numberline {6.10}{\ignorespaces Propagowanie komunikatu \textit  {\unhbox \voidb@x \hbox {StartTaskRequest}} za pomoc\IeC {\k a} tymczasowej topologii w~postaci drzewa binarnego. Szara linia przerywana odwzorouje hierarchiczn\IeC {\k a} strukture chmury obliczeniowej przedstawian\IeC {\k a} na pozosta\IeC {\l }ych rysunkach wykorzystanych w~ramach specyfikacji protoko\IeC {\l }\IeC {\'o}w wewn\IeC {\k e}trznych.}}{48}}
\newlabel{fig:starttaskrequest}{{6.10}{48}}
\@writefile{toc}{\contentsline {subsection}{\numberline {6.3.2}Protoko\IeC {\l }y zewn\IeC {\k e}trzne}{48}}
\@setckpt{rozdzial6}{
\setcounter{page}{49}
\setcounter{equation}{0}
\setcounter{enumi}{3}
\setcounter{enumii}{0}
\setcounter{enumiii}{0}
\setcounter{enumiv}{0}
\setcounter{footnote}{15}
\setcounter{mpfootnote}{0}
\setcounter{part}{0}
\setcounter{chapter}{6}
\setcounter{section}{3}
\setcounter{subsection}{2}
\setcounter{subsubsection}{0}
\setcounter{paragraph}{0}
\setcounter{subparagraph}{0}
\setcounter{figure}{10}
\setcounter{table}{0}
\setcounter{lofdepth}{1}
\setcounter{lotdepth}{1}
\setcounter{lstnumber}{2}
\setcounter{parentequation}{0}
\setcounter{lstlisting}{0}
}
