\relax 
\citation{Smartphone_comparison}
\citation{Smartphone_comparison}
\citation{Mobile_trends}
\citation{Smartphone_comparison}
\citation{Smartphone_comparison}
\citation{Smartphone}
\citation{Smartphone}
\@writefile{toc}{\contentsline {chapter}{\numberline {4}Trendy w rozwoju urz\IeC {\k a}dze\IeC {\'n} mobilnych}{23}}
\@writefile{lof}{\addvspace {10\p@ }}
\@writefile{lot}{\addvspace {10\p@ }}
\newlabel{cha:rozdzial4}{{4}{23}}
\@writefile{toc}{\contentsline {section}{\numberline {4.1}Moc obliczeniowa}{23}}
\@writefile{toc}{\contentsline {section}{\numberline {4.2}Rozmiar pami\IeC {\k e}ci}{23}}
\@writefile{lof}{\contentsline {figure}{\numberline {4.1}{\ignorespaces Zestawienie najwy\IeC {\.z}szej sumarycznej cz\IeC {\k e}stotliwo\IeC {\'s}ci najszybszego procesora urz\IeC {\k a}dzenia mobilnego w~zale\IeC {\.z}no\IeC {\'s}ci od roku, w kt\IeC {\'o}rym dane urz\IeC {\k a}dzenie mobilne by\IeC {\l }o dost\IeC {\k e}pne na rynku. Stworzono na podstawie:~\cite  {Smartphone_comparison}.}}{24}}
\newlabel{fig:mobile_cpu_trends}{{4.1}{24}}
\@writefile{lof}{\contentsline {figure}{\numberline {4.2}{\ignorespaces Zestawienie najwi\IeC {\k e}kszej dost\IeC {\k e}pnej pami\IeC {\k e}ci RAM dla urz\IeC {\k a}dzenia mobilnego w~zale\IeC {\.z}no\IeC {\'s}ci od roku, w~kt\IeC {\'o}rym dane urz\IeC {\k a}dzenie mobilne by\IeC {\l }o dost\IeC {\k e}pne na rynku. Stworzono na podstawie:~\cite  {Smartphone_comparison}.}}{24}}
\newlabel{fig:mobile_ram_trends}{{4.2}{24}}
\@writefile{toc}{\contentsline {section}{\numberline {4.3}Powszechno\IeC {\'s}\IeC {\'c} smartfon\IeC {\'o}w}{24}}
\citation{Mobile_trends}
\@writefile{lof}{\contentsline {figure}{\numberline {4.3}{\ignorespaces Zestawienie ilo\IeC {\'s}ci sprzedanych smartfon\IeC {\'o}w na przedziale lat 2007~-~2013 z~wyk\IeC {\l }adnicz\IeC {\k a} lini\IeC {\k a} trendu poprowadzon\IeC {\k a} do roku~2020. Stworzono na podstawie:~\cite  {Smartphone}.}}{25}}
\newlabel{fig:mobile_selling_trends}{{4.3}{25}}
\@writefile{toc}{\contentsline {section}{\numberline {4.4}Podsumowanie}{25}}
\@setckpt{rozdzial4}{
\setcounter{page}{26}
\setcounter{equation}{0}
\setcounter{enumi}{5}
\setcounter{enumii}{0}
\setcounter{enumiii}{0}
\setcounter{enumiv}{0}
\setcounter{footnote}{1}
\setcounter{mpfootnote}{0}
\setcounter{part}{0}
\setcounter{chapter}{4}
\setcounter{section}{4}
\setcounter{subsection}{0}
\setcounter{subsubsection}{0}
\setcounter{paragraph}{0}
\setcounter{subparagraph}{0}
\setcounter{figure}{3}
\setcounter{table}{0}
\setcounter{lofdepth}{1}
\setcounter{lotdepth}{1}
\setcounter{lstnumber}{1}
\setcounter{parentequation}{0}
\setcounter{lstlisting}{0}
}
