\relax 
\@writefile{toc}{\contentsline {chapter}{\numberline {1}Wprowadzenie}{9}}
\@writefile{lof}{\addvspace {10\p@ }}
\@writefile{lot}{\addvspace {10\p@ }}
\newlabel{cha:rozdzial1}{{1}{9}}
\@writefile{toc}{\contentsline {section}{\numberline {1.1}Cel pracy}{9}}
\@writefile{toc}{\contentsline {section}{\numberline {1.2}Struktura pracy}{10}}
\@writefile{toc}{\contentsline {section}{\numberline {1.3}Zakres prac}{10}}
\@setckpt{rozdzial1}{
\setcounter{page}{12}
\setcounter{equation}{0}
\setcounter{enumi}{0}
\setcounter{enumii}{0}
\setcounter{enumiii}{0}
\setcounter{enumiv}{0}
\setcounter{footnote}{1}
\setcounter{mpfootnote}{0}
\setcounter{part}{0}
\setcounter{chapter}{1}
\setcounter{section}{3}
\setcounter{subsection}{0}
\setcounter{subsubsection}{0}
\setcounter{paragraph}{0}
\setcounter{subparagraph}{0}
\setcounter{figure}{0}
\setcounter{table}{0}
\setcounter{lofdepth}{1}
\setcounter{lotdepth}{1}
\setcounter{lstnumber}{1}
\setcounter{parentequation}{0}
\setcounter{lstlisting}{0}
}
